{
	"app_port": 3056,
	"record_db": true, 
	"mongo_db_url": "mongodb://127.0.0.1:27017/test",
	"store_all_properties": false,
	"print_in_console": true, 
	"config_check_interval_ms": 60000,  
	"check_interval_min_ms": 10000, 
	"print_metrics": false,
	"get_metrics_threshold_ms": 7000, 
	"monitoring_glassfish_endpoint": "http://10.1.15.162:3009"
}

